{
  "default": {
    "title": {
      "fonts": [
        {
          "font": "./fonts/Menlo.ttc"
        }
      ],
      "color": "#FFFFFF"
    },
    "background": "./background.jpg",
    "padding": 50
  },


  "data": [
    {
      "filter": "notification",
      "title": {
        "text": "Get notified of new app reviews"
      }
    },
    {
      "filter": "main",
      "title": {
        "text": "Read reviews from the whole world in one place"
      }
    }
  ]
}
